INDEX VERSION 1.131+C:\Users\Dwi Hutomo\Documents\for home\untuk test\.metadata\.plugins\org.eclipse.jdt.core
512056584.index
1533303441.index
3900663018.index
3890964253.index
2227786841.index
811044021.index
2157010381.index
3950474153.index
2177883829.index
1684076551.index
2394517248.index
443067113.index
2269269921.index
1961535274.index
368191065.index
3111991420.index
2920492210.index
2676815450.index
769398222.index
3597645588.index
2080277838.index
1362970255.index
1704956129.index
715374721.index
2121946877.index
3937146722.index
3418608567.index
2330095775.index
3551552156.index
1330658397.index
2193272128.index
3081746183.index
4182529755.index
483966528.index
2949967666.index
2544705626.index
2580143747.index
948208018.index
155746815.index
1415882520.index
2661293508.index
1955401129.index
1230375882.index
3398369606.index
908603095.index
472728662.index
3252133142.index
1363372493.index
2185664165.index
113544824.index
1546633830.index
1736376252.index
2984373809.index
3269281061.index
2329910179.index
2398209385.index
965305088.index
2795265832.index
2372949657.index
1425150831.index
3506763771.index
2446602603.index
3726584988.index
127804401.index
547855106.index
682675359.index
4200654127.index
951558985.index
4224046993.index
829562674.index
1317568592.index
4168321250.index
511110365.index
280822322.index
414759181.index
2633094735.index
3397809872.index
801226498.index
407537651.index
2795151027.index
1155665355.index
3792983705.index
1102354409.index
2009384731.index
163699781.index
3539627675.index
1390961129.index
1479561089.index
901044478.index
3393353981.index
4207790873.index
3643736272.index
4025853842.index
3838253220.index
2407911596.index
2751103680.index
3158085283.index
1430864442.index
1401379404.index
2521107603.index
3082338743.index
700863872.index
2757304120.index
2783589272.index
