<?xml version="1.0" encoding="UTF-8"?>
<session version="1.0">
<refactoring comment="Rename type &apos;com.dailytests.order.entity.order&apos; to &apos;Order&apos;&#x0D;&#x0A;- Original project: &apos;order-service&apos;&#x0D;&#x0A;- Original element: &apos;com.dailytests.order.entity.order&apos;&#x0D;&#x0A;- Renamed element: &apos;com.dailytests.order.entity.Order&apos;&#x0D;&#x0A;- Update references to refactored element&#x0D;&#x0A;- Update textual occurrences in comments and strings" description="Rename type &apos;order&apos;" flags="589830" id="org.eclipse.jdt.ui.rename.type" input="/src\/main\/java=/optional=/true=/=/maven.pomderived=/true=/&lt;com.dailytests.order.entity{order.java[order" matchStrategy="1" name="Order" qualified="false" references="true" similarDeclarations="false" stamp="1616315316958" textual="false" version="1.0"/>
</session>